<?xml version="1.0" standalone="no"?>
<!DOCTYPE svg PUBLIC "-//W3C//DTD SVG 20010904//EN"
 "http://www.w3.org/TR/2001/REC-SVG-20010904/DTD/svg10.dtd">
<svg version="1.0" xmlns="http://www.w3.org/2000/svg"
 width="16.000000pt" height="16.000000pt" viewBox="0 0 16.000000 16.000000"
 preserveAspectRatio="xMidYMid meet">
<metadata>
Created by potrace 1.11, written by Peter Selinger 2001-2013
</metadata>
<g transform="translate(0.000000,16.000000) scale(0.008333,-0.008333)"
fill="#000000" stroke="none">
<path d="M1118 1900 c18 -11 77 -43 131 -70 246 -123 453 -362 521 -602 45
-156 32 -401 -30 -582 -77 -221 -251 -419 -439 -497 -115 -48 -197 -62 -336
-56 -176 8 -317 50 -437 131 -331 222 -424 639 -236 1050 47 101 82 151 163
231 111 110 231 162 383 168 145 6 253 -33 342 -123 120 -122 171 -273 165
-490 -1 -69 -6 -138 -9 -155 -4 -16 -11 -55 -17 -85 -6 -30 -27 -104 -46 -165
-49 -151 -76 -188 -172 -233 -72 -33 -170 -40 -238 -18 -250 83 -394 470 -276
737 42 95 121 142 240 143 64 1 76 -2 115 -29 96 -68 147 -192 125 -309 -14
-79 -55 -146 -102 -167 -54 -25 -84 -24 -128 6 -72 50 -91 129 -49 211 30 59
57 80 90 68 55 -19 76 -115 39 -175 -10 -16 -9 -21 3 -29 66 -42 119 88 72
179 -27 54 -65 76 -127 76 -88 0 -147 -64 -160 -173 -11 -101 46 -213 125
-244 109 -43 223 8 273 121 49 110 16 352 -61 443 -32 38 -98 67 -172 75 -81
8 -157 -18 -220 -74 -98 -88 -134 -183 -135 -353 0 -127 5 -164 37 -260 56
-174 128 -250 277 -294 213 -63 433 53 546 289 35 73 61 146 70 192 3 16 7 39
11 53 11 47 13 255 2 320 -16 99 -62 229 -110 310 -50 84 -143 183 -208 222
-193 112 -431 91 -657 -59 -97 -64 -225 -201 -266 -286 -151 -309 -145 -594
20 -922 99 -196 243 -332 434 -408 36 -14 80 -29 99 -32 19 -3 55 -11 80 -16
68 -15 256 -13 331 5 223 51 398 192 510 409 85 165 131 355 130 532 -1 121
-5 158 -32 255 -53 197 -190 399 -379 560 -35 30 -71 61 -78 68 -24 22 -49 32
-134 52 -105 25 -121 25 -80 0z"/>
</g>
</svg>
