<?xml version="1.0" encoding="utf-8"?>
<!-- Generator: Adobe Illustrator 21.1.0, SVG Export Plug-In . SVG Version: 6.00 Build 0)  -->
<svg version="1.1" id="Layer_1" xmlns="http://www.w3.org/2000/svg" xmlns:xlink="http://www.w3.org/1999/xlink" x="0px" y="0px"
	 viewBox="0 0 648 191.1" style="enable-background:new 0 0 648 191.1;" xml:space="preserve">
<style type="text/css">
	.st0{fill:#00456B;stroke:#00456B;}
</style>
<title>Artboard 1</title>
<path class="st0" d="M1.8,112.6c11.9,51.4,42.7,78.6,89,78.6c40.5,0,70-28.8,79-77c7.7-41.7-10-79.6-51.2-109.4
	c-1.4-1-21.5-5.7-20.2-4.6c1.9,1.7,23.4,12,24.7,13c39.8,28.9,51.7,59.4,44.2,99.8c-6.5,35.3-33.5,70.3-76.6,70.3
	c-53.5,0-79.8-36.9-81.9-71.3C6.7,78.2,25.3,51.6,25.4,51.3c15.8-20.8,31.9-27,51.1-27c14,0,23.3,5,29.4,10.7
	c27.6,25.8,19.3,72,7,102.3c-4.5,11.1-18,16-28.5,16s-20.7-5.7-28.5-16c-13.5-17.9-17.9-48.2-4.3-66c4.8-6.3,15.4-8.6,21.5-8.6
	s12.4,3.6,17.1,9.8c8.5,11.2,9,27.1,0.4,38.3c-2.8,3.7-8.4,5.2-11.8,5.2s-7.8-3.2-10.6-6.9c-5.2-6.9-2.8-14.3,2.4-21.2
	c1.6-2,3.5-3.3,5.1-3.3s3.6,1.2,5.1,3.3c3.2,4.7,3.2,10.8,0,15.5c-0.9,1.1-0.1,2.5,1.6,3.1s3.9,0.1,4.7-1c4.2-5.8,4.2-13.7,0-19.5
	c-4.6-6.3-13.5-7.7-19.9-3.1c-1.2,0.9-2.2,1.9-3.1,3.1c-6.3,8.2-6.3,21.1,0,29.3c6.3,8.9,18.6,11,27.5,4.7c1.8-1.3,3.4-2.9,4.7-4.7
	c9.4-12.3,5-32,0-44.8c-3.4-8.6-14.4-12.3-23.4-12.3s-17.4,4.4-23.4,12.3c-14.4,19-10.4,48.6,0,68.8c6.5,12.6,21.4,18.6,34.8,18.6
	s25.8-6.6,34.8-18.6c22.3-29.3,22.3-77,0-106.4c-14-18.5-31-22.4-42.8-22.4c-22,0-45.3,13.5-62.5,36.1C13.1,48.1-5.8,79.7,1.8,112.6
	"/>
<path class="st0" d="M242.6,74h-24.9L230,31.3L242.6,74z M227.1,24.8l-22.8,79.3h4.8l7.4-25.8H244l7.6,25.8h4.8l-23.5-79.3H227.1z"
	/>
<path class="st0" d="M242.6,74h-24.9L230,31.3L242.6,74z M227.1,24.8l-22.8,79.3h4.8l7.4-25.8H244l7.6,25.8h4.8l-23.5-79.3H227.1z"
	/>
<polygon class="st0" points="315.7,24.8 295.1,77.4 274.3,24.8 266.7,24.8 266.7,104.1 271.4,104.1 271.4,29.8 295.1,89.2 
	318.5,29.8 318.5,104.1 323.1,104.1 323.1,24.8 "/>
<polygon class="st0" points="315.7,24.8 295.1,77.4 274.3,24.8 266.7,24.8 266.7,104.1 271.4,104.1 271.4,29.8 295.1,89.2 
	318.5,29.8 318.5,104.1 323.1,104.1 323.1,24.8 "/>
<polygon class="st0" points="338.9,24.8 338.9,104.1 384.6,104.1 384.6,99.9 343.5,99.9 343.5,64.8 371.9,64.8 371.9,60.6 
	343.5,60.6 343.5,29 383.5,29 383.5,24.8 "/>
<polygon class="st0" points="338.9,24.8 338.9,104.1 384.6,104.1 384.6,99.9 343.5,99.9 343.5,64.8 371.9,64.8 371.9,60.6 
	343.5,60.6 343.5,29 383.5,29 383.5,24.8 "/>
<path class="st0" d="M413.8,29c5.5,0,22.4,0,22.4,16.5c0,6.7-3.5,13.3-11.2,15.6c-2.6,0.9-5.7,1.2-14,1.2h-11.5V29H413.8z
	 M394.7,24.8v79.3h4.7V66.6h19.1l17.8,37.5h4.9l-17.9-38.2c3.3-0.7,6.8-1.3,10.7-4.5c4.7-3.7,6.9-9.6,6.9-15.4
	c0-4.4-1.3-8.7-3.7-12.4c-4.1-6.3-11.5-8.8-21-8.8L394.7,24.8z"/>
<path class="st0" d="M413.8,29c5.5,0,22.4,0,22.4,16.5c0,6.7-3.5,13.3-11.2,15.6c-2.6,0.9-5.7,1.2-14,1.2h-11.5V29H413.8z
	 M394.7,24.8v79.3h4.7V66.6h19.1l17.8,37.5h4.9l-17.9-38.2c3.3-0.7,6.8-1.3,10.7-4.5c4.7-3.7,6.9-9.6,6.9-15.4
	c0-4.4-1.3-8.7-3.7-12.4c-4.1-6.3-11.5-8.8-21-8.8L394.7,24.8z"/>
<rect x="452" y="24.8" class="st0" width="4.7" height="79.3"/>
<rect x="452" y="24.8" class="st0" width="4.7" height="79.3"/>
<path class="st0" d="M519.4,47.8c-1.8-16.6-12.7-24.4-23.2-24.4c-12.8,0-27,8.9-27,41.7c0,12.8,2.7,40.5,26.4,40.5
	c18.7,0,23.5-17.8,25.4-25.2l-4.5-1.4c-2,7.5-6,22.4-20.6,22.4c-20.4,0-22-25.8-22-36.7c0-7.1,0.6-37,22.1-37
	c9.5,0,17.3,7.5,18.8,20.5L519.4,47.8z"/>
<path class="st0" d="M519.4,47.8c-1.8-16.6-12.7-24.4-23.2-24.4c-12.8,0-27,8.9-27,41.7c0,12.8,2.7,40.5,26.4,40.5
	c18.7,0,23.5-17.8,25.4-25.2l-4.5-1.4c-2,7.5-6,22.4-20.6,22.4c-20.4,0-22-25.8-22-36.7c0-7.1,0.6-37,22.1-37
	c9.5,0,17.3,7.5,18.8,20.5L519.4,47.8z"/>
<path class="st0" d="M565.4,74h-24.9l12.2-42.7L565.4,74z M549.9,24.8l-22.8,79.3h4.8l7.4-25.8h27.4l7.6,25.8h4.8l-23.4-79.3H549.9z
	"/>
<path class="st0" d="M565.4,74h-24.9l12.2-42.7L565.4,74z M549.9,24.8l-22.8,79.3h4.8l7.4-25.8h27.4l7.6,25.8h4.8l-23.4-79.3H549.9z
	"/>
<path class="st0" d="M580.8,24.8v8.4h2.3c-0.1,5.6-1.5,9.1-4.8,13.6l2.5,1.5c4-4.6,6.1-10.6,6-16.7v-6.9H580.8z"/>
<path class="st0" d="M580.8,24.8v8.4h2.3c-0.1,5.6-1.5,9.1-4.8,13.6l2.5,1.5c4-4.6,6.1-10.6,6-16.7v-6.9H580.8z"/>
<path class="st0" d="M645.8,41.5c-1.5-4.5-6-18.1-23-18.1c-13.8,0-21.6,9.3-21.6,20.5c0,12.1,8.6,17,23.1,22
	c11.1,3.8,19,7.5,19,17.9c0,8.8-6.9,17.5-18.5,17.5c-15.1,0-20.5-13-22.3-16.9l-4.4,1c6.1,17.4,18.5,20.2,26.1,20.2
	c14.5,0,23.8-10.2,23.8-21.7c0-14.4-12.8-19-22.4-22.2c-12.7-4.2-19.8-8.2-19.8-17.9c0-8.9,6.9-16.1,16.9-16.1
	c12.9,0,17.3,11.2,18.8,14.8L645.8,41.5z"/>
<path class="st0" d="M645.8,41.5c-1.5-4.5-6-18.1-23-18.1c-13.8,0-21.6,9.3-21.6,20.5c0,12.1,8.6,17,23.1,22
	c11.1,3.8,19,7.5,19,17.9c0,8.8-6.9,17.5-18.5,17.5c-15.1,0-20.5-13-22.3-16.9l-4.4,1c6.1,17.4,18.5,20.2,26.1,20.2
	c14.5,0,23.8-10.2,23.8-21.7c0-14.4-12.8-19-22.4-22.2c-12.7-4.2-19.8-8.2-19.8-17.9c0-8.9,6.9-16.1,16.9-16.1
	c12.9,0,17.3,11.2,18.8,14.8L645.8,41.5z"/>
<polygon class="st0" points="208.4,119.3 208.4,166.9 211.2,166.9 211.2,143.3 227.9,143.3 227.9,140.7 211.2,140.7 211.2,121.9 
	234.3,121.9 234.3,119.3 "/>
<polygon class="st0" points="208.4,119.3 208.4,166.9 211.2,166.9 211.2,143.3 227.9,143.3 227.9,140.7 211.2,140.7 211.2,121.9 
	234.3,121.9 234.3,119.3 "/>
<polygon class="st0" points="243.5,119.3 243.5,166.9 269.4,166.9 269.4,164.4 246.3,164.4 246.3,119.3 "/>
<polygon class="st0" points="243.5,119.3 243.5,166.9 269.4,166.9 269.4,164.4 246.3,164.4 246.3,119.3 "/>
<path class="st0" d="M289.6,165.2c-13.2,0-14.1-17.2-14.1-21.3c0-13.3,4.1-22.8,14-22.8c11.5,0,14.1,13.7,14.1,21.4
	C303.5,149.9,302,165.2,289.6,165.2 M289.6,167.8c13.8,0,16.7-14.6,16.7-25.3c0-8.6-3-24-16.9-24c-13.2,0-16.8,13.6-16.8,25.1
	C272.7,148.5,273.7,167.8,289.6,167.8"/>
<path class="st0" d="M289.6,165.2c-13.2,0-14.1-17.2-14.1-21.3c0-13.3,4.1-22.8,14-22.8c11.5,0,14.1,13.7,14.1,21.4
	C303.5,149.9,302,165.2,289.6,165.2z M289.6,167.8c13.8,0,16.7-14.6,16.7-25.3c0-8.6-3-24-16.9-24c-13.2,0-16.8,13.6-16.8,25.1
	C272.7,148.4,273.7,167.8,289.6,167.8z"/>
<path class="st0" d="M332.1,165.2c-13.2,0-14.1-17.2-14.1-21.3c0-13.3,4.1-22.9,14-22.9c11.5,0,14.1,13.7,14.1,21.4
	C346.1,149.9,344.6,165.2,332.1,165.2 M332.2,167.7c13.8,0,16.7-14.6,16.7-25.3c0-8.6-3-24-16.9-24c-13.2,0-16.8,13.6-16.8,25.1
	C315.2,148.5,316.2,167.8,332.2,167.7"/>
<path class="st0" d="M332.1,165.2c-13.2,0-14.1-17.2-14.1-21.3c0-13.3,4.1-22.9,14-22.9c11.5,0,14.1,13.7,14.1,21.4
	C346,149.9,344.5,165.2,332.1,165.2z M332.1,167.8c13.8,0,16.7-14.6,16.7-25.3c0-8.6-3-24-16.9-24c-13.2,0-16.8,13.6-16.8,25.1
	C315.2,148.4,316.2,167.8,332.1,167.8z"/>
<path class="st0" d="M370.8,121.9c3.3,0,13.4,0,13.4,9.9c0.2,4.3-2.6,8.2-6.8,9.4c-1.6,0.5-3.4,0.7-8.4,0.7h-6.9v-20L370.8,121.9z
	 M359.3,119.3v47.6h2.8v-22.5h11.5l10.7,22.5h3L376.5,144c2.3-0.3,4.6-1.2,6.4-2.7c2.7-2.3,4.2-5.7,4.1-9.2c0-2.7-0.8-5.2-2.2-7.5
	c-2.5-3.8-6.9-5.3-12.6-5.3H359.3z"/>
<path class="st0" d="M370.8,121.9c3.3,0,13.4,0,13.4,9.9c0.2,4.3-2.6,8.2-6.8,9.4c-1.6,0.5-3.4,0.7-8.4,0.7h-6.9v-20L370.8,121.9z
	 M359.3,119.3v47.6h2.8v-22.5h11.5l10.7,22.5h3L376.5,144c2.3-0.3,4.6-1.2,6.4-2.7c2.7-2.3,4.2-5.7,4.1-9.2c0-2.7-0.8-5.2-2.2-7.5
	c-2.5-3.8-6.9-5.3-12.6-5.3H359.3z"/>
<path class="st0" d="M445,129.3c-0.9-2.7-3.6-10.9-13.8-10.9c-8.3,0-13,5.6-13,12.3c0,7.3,5.2,10.2,13.9,13.2
	c6.7,2.3,11.4,4.5,11.4,10.7c0,5.3-4.1,10.5-11.1,10.5c-9,0-12.3-7.8-13.4-10.1l-2.6,0.6c3.7,10.5,11.1,12.1,15.6,12.1
	c8.7,0,14.3-6.1,14.3-13c0-8.6-7.7-11.4-13.4-13.3c-7.6-2.5-11.9-4.9-11.9-10.7c0-5.4,4.1-9.7,10.1-9.7c7.7,0,10.4,6.8,11.3,8.9
	L445,129.3z"/>
<path class="st0" d="M445,129.3c-0.9-2.7-3.6-10.9-13.8-10.9c-8.3,0-13,5.6-13,12.3c0,7.3,5.2,10.2,13.9,13.2
	c6.7,2.3,11.4,4.5,11.4,10.7c0,5.3-4.1,10.5-11.1,10.5c-9,0-12.3-7.8-13.4-10.1l-2.6,0.6c3.7,10.5,11.1,12.1,15.6,12.1
	c8.7,0,14.3-6.1,14.3-13c0-8.6-7.7-11.4-13.4-13.3c-7.6-2.5-11.9-4.9-11.9-10.7c0-5.4,4.1-9.7,10.1-9.7c7.7,0,10.4,6.8,11.3,8.9
	L445,129.3z"/>
<path class="st0" d="M472.1,165.2c-13.2,0-14.1-17.2-14.1-21.3c0-13.3,4.1-22.9,14-22.9c11.5,0,14,13.7,14,21.4
	C486,149.9,484.5,165.2,472.1,165.2 M472.1,167.7c13.8,0,16.7-14.6,16.7-25.3c0-8.6-3-24-16.9-24c-13.2,0-16.8,13.6-16.8,25.1
	C455.2,148.5,456.2,167.8,472.1,167.7"/>
<path class="st0" d="M472.1,165.2c-13.2,0-14.1-17.2-14.1-21.3c0-13.3,4.1-22.9,14-22.9c11.5,0,14,13.7,14,21.4
	C486,149.9,484.5,165.2,472.1,165.2z M472.2,167.8c13.8,0,16.7-14.6,16.7-25.3c0-8.6-3-24-16.9-24c-13.2,0-16.8,13.6-16.8,25.1
	C455.2,148.4,456.3,167.8,472.2,167.8z"/>
<path class="st0" d="M499.5,119.3v32.5c0,9.1,4.9,15.9,14.5,15.9c8.7,0,14.3-6,14.3-15.9v-32.5h-2.8v32.1c0,8.2-3.7,13.8-11.6,13.8
	c-7.5,0-11.5-5.4-11.5-13.8v-32.1H499.5z"/>
<path class="st0" d="M499.5,119.3v32.5c0,9.1,4.9,15.9,14.5,15.9c8.7,0,14.3-6,14.3-15.9v-32.5h-2.8v32.1c0,8.2-3.7,13.8-11.6,13.8
	c-7.5,0-11.5-5.4-11.5-13.8v-32.1H499.5z"/>
<path class="st0" d="M551.9,121.9c3.3,0,13.4,0,13.4,9.9c0.2,4.3-2.6,8.2-6.7,9.4c-1.6,0.5-3.4,0.7-8.4,0.7h-6.9v-20L551.9,121.9z
	 M540.5,119.3v47.6h2.8v-22.5h11.5l10.7,22.5h3L557.6,144c2.3-0.3,4.6-1.2,6.4-2.7c2.7-2.3,4.2-5.7,4.1-9.2c0-2.7-0.8-5.2-2.2-7.5
	c-2.5-3.8-6.9-5.3-12.6-5.3H540.5z"/>
<path class="st0" d="M551.9,121.9c3.3,0,13.4,0,13.4,9.9c0.2,4.3-2.6,8.2-6.7,9.4c-1.6,0.5-3.4,0.7-8.4,0.7h-6.9v-20L551.9,121.9z
	 M540.5,119.3v47.6h2.8v-22.5h11.5l10.7,22.5h3L557.6,144c2.3-0.3,4.6-1.2,6.4-2.7c2.7-2.3,4.2-5.7,4.1-9.2c0-2.7-0.8-5.2-2.2-7.5
	c-2.5-3.8-6.9-5.3-12.6-5.3H540.5z"/>
<path class="st0" d="M606,133.1c-1-10-7.6-14.7-13.9-14.7c-7.7,0-16.2,5.4-16.2,25c0,7.7,1.6,24.3,15.8,24.3
	c11.2,0,14.1-10.7,15.3-15.1l-2.7-0.9c-1.2,4.5-3.6,13.4-12.4,13.4c-12.2,0-13.2-15.4-13.2-22c0-4.3,0.4-22.2,13.3-22.2
	c5.7,0,10.4,4.5,11.3,12.3L606,133.1z"/>
<path class="st0" d="M606,133.1c-1-10-7.6-14.7-13.9-14.7c-7.7,0-16.2,5.4-16.2,25c0,7.7,1.6,24.3,15.8,24.3
	c11.2,0,14.1-10.7,15.3-15.1l-2.7-0.9c-1.2,4.5-3.6,13.4-12.4,13.4c-12.2,0-13.2-15.4-13.2-22c0-4.3,0.4-22.2,13.3-22.2
	c5.7,0,10.4,4.5,11.3,12.3L606,133.1z"/>
<polygon class="st0" points="616.5,119.3 616.5,166.9 644,166.9 644,164.4 619.3,164.4 619.3,143.3 636.3,143.3 636.3,140.8 
	619.3,140.8 619.3,121.9 643.3,121.9 643.3,119.3 "/>
<polygon class="st0" points="616.5,119.3 616.5,166.9 644,166.9 644,164.4 619.3,164.4 619.3,143.3 636.3,143.3 636.3,140.8 
	619.3,140.8 619.3,121.9 643.3,121.9 643.3,119.3 "/>
</svg>
