<?xml version="1.0" encoding="utf-8"?>
<!-- Generator: Adobe Illustrator 19.1.0, SVG Export Plug-In . SVG Version: 6.00 Build 0)  -->
<svg version="1.1" id="Layer_1" xmlns="http://www.w3.org/2000/svg" xmlns:xlink="http://www.w3.org/1999/xlink" x="0px" y="0px"
	 viewBox="0 0 133.9 50" style="enable-background:new 0 0 133.9 50;" xml:space="preserve">
<style type="text/css">
	.st0{fill:#FFFFFF;}
	.st1{fill:#FFFFFF;stroke:#245E88;stroke-miterlimit:5;}
	.st2{fill:#245E88;}
</style>
<rect x="63.7" y="29.3" class="st0" width="70.2" height="20.7"/>
<path class="st1" d="M27.4,24.7H17.2c-2.7,0-3.9-2.3-2.7-5.2l5.8-13.9c1.2-2.8,4.3-5.2,7-5.2h10.2c2.7,0,3.9,2.3,2.7,5.2l-5.8,13.9
	C33.2,22.4,30,24.7,27.4,24.7z"/>
<path class="st1" d="M14.1,35.9H3.9c-2.7,0-3.9-2.3-2.7-5.2L7,16.8c1.2-2.8,4.3-5.2,7-5.2h10.2c2.7,0,3.9,2.3,2.7,5.2l-5.8,13.9
	C19.9,33.6,16.7,35.9,14.1,35.9z"/>
<path class="st1" d="M46.2,32.8H36c-2.7,0-3.9-2.3-2.7-5.2l5.8-13.9c1.2-2.8,4.3-5.2,7-5.2h10.2c2.7,0,3.9,2.3,2.7,5.2l-5.8,13.9
	C52,30.5,48.9,32.8,46.2,32.8z"/>
<path class="st1" d="M35.4,41.9H25.2c-2.7,0-3.9-2.3-2.7-5.2l5.8-13.9c1.2-2.8,4.3-5.2,7-5.2h10.2c2.7,0,3.9,2.3,2.7,5.2l-5.8,13.9
	C41.2,39.6,38,41.9,35.4,41.9z"/>
<path class="st1" d="M18.9,49.5H8.7c-2.7,0-3.9-2.3-2.7-5.2l5.8-13.9c1.2-2.8,4.3-5.2,7-5.2H29c2.7,0,3.9,2.3,2.7,5.2l-5.8,13.9
	C24.7,47.2,21.5,49.5,18.9,49.5z"/>
<g>
	<path class="st0" d="M108.3,25.1H101l-3.1-12.3c-0.5-1.7-0.8-3.7-1-6L96.7,8l-0.9,4.8l-3,12.3h-7.3L79.9,1.5h5.7l2.8,13.3
		c0.3,1.3,0.6,3.4,1.1,6.3c0.4-2.9,0.7-4.9,1-6.2l3.3-13.4h6l3.3,13.4c0.4,2,0.8,4.1,1,6.2c0.5-3.2,0.9-5.3,1.1-6.3l2.7-13.3h5.8
		L108.3,25.1z"/>
	<path class="st0" d="M134.1,8.8c0,2.5-0.8,4.4-2.5,5.8c-1.7,1.3-4.1,2-7.3,2h-1.5v8.5h-5.8V1.5h8C131.1,1.5,134.1,4,134.1,8.8z
		 M122.9,12.8h1.1c1.4,0,2.5-0.3,3.2-0.9c0.7-0.6,1-1.6,1-2.9c0-1.2-0.3-2.2-1-2.7c-0.6-0.6-1.6-0.9-3-0.9h-1.4V12.8z"/>
</g>
<g>
	<path class="st0" d="M64.4,25.1v-3.2c0-1.3,0.3-2.3,0.8-2.9c0.5-0.6,1.3-0.9,2.4-0.9c0.7,0,1.3,0.2,1.8,0.5
		c0.5,0.3,0.8,0.7,0.9,1.3h0.1c0.2-0.7,0.5-1.2,1-1.5s1.1-0.5,1.9-0.5c1.1,0,2,0.3,2.7,0.9c0.6,0.6,1,1.4,1,2.5v3.8H64.4z
		 M69.5,22.9v-1.1c0-0.5-0.1-0.8-0.4-1c-0.3-0.2-0.7-0.3-1.2-0.3s-0.9,0.1-1.1,0.3c-0.2,0.2-0.3,0.6-0.3,1.1v1H69.5z M71.4,22.9H75
		v-1.2c0-0.5-0.1-0.9-0.4-1.1s-0.8-0.4-1.4-0.4c-1.1,0-1.7,0.5-1.7,1.5V22.9z"/>
	<path class="st0" d="M77,16.2H64.4v-2.3H75v-3.2H77V16.2z"/>
	<path class="st0" d="M70.6,1.1c2.1,0,3.7,0.4,4.8,1.3C76.5,3.2,77,4.4,77,6v3.1H64.4V5.7c0-1.5,0.5-2.6,1.6-3.4
		C67.1,1.5,68.6,1.1,70.6,1.1z M70.7,3.5c-2.8,0-4.2,0.8-4.2,2.3v0.9H75V6c0-0.9-0.4-1.5-1.1-1.9C73.2,3.7,72.1,3.5,70.7,3.5z"/>
</g>
<g>
	<path class="st2" d="M89.4,35.2h4.4v6.2c0,2.5-4.5,3.2-10.3,3.2c-1.6,0-3.6-0.1-4.7-0.2l0.7-1c0.9,0.1,2.2,0.2,3.7,0.2
		c4,0,6.3-0.5,6.3-2.3V35.2z"/>
	<path class="st2" d="M100.6,43c2,0.3,4.9,0.6,7.9,0.6c4.5,0,7.1-0.6,7.1-1.6c0-0.9-1.8-1.4-6.4-1.8c-5.6-0.5-9-1.3-9-2.6
		c0-1.4,4.4-2.5,11-2.5c3.5,0,6,0.2,7.5,0.5l-1.2,1c-1.1-0.2-3.4-0.4-6.5-0.4c-4.7,0-6.4,0.8-6.4,1.4c0,0.9,2.1,1.3,6.8,1.8
		c5.8,0.6,8.7,1.4,8.7,2.7c0,1.4-3.9,2.7-12,2.7c-3.3,0-6.9-0.3-8.7-0.6L100.6,43z"/>
</g>
</svg>
